{
  "project_info": {
    "project_number": "339112555483",
    "firebase_url": "https://ileu-biz.firebaseio.com",
    "project_id": "ileu-biz",
    "storage_bucket": "ileu-biz.appspot.com"
  },
  "client": [
    {
      "client_info": {
        "mobilesdk_app_id": "1:339112555483:android:e9e4d971f9ed7142",
        "android_client_info": {
          "package_name": "biz.ileu.ileuapp"
        }
      },
      "oauth_client": [
        {
          "client_id": "339112555483-mijbbrs88dc6i4vlphgpn0p6dtorv4tj.apps.googleusercontent.com",
          "client_type": 3
        }
      ],
      "api_key": [
        {
          "current_key": "AIzaSyAavPnyJgY-H75_oitN51wdukdyWEbbx5Y"
        }
      ],
      "services": {
        "analytics_service": {
          "status": 1
        },
        "appinvite_service": {
          "status": 1,
          "other_platform_oauth_client": []
        },
        "ads_service": {
          "status": 2
        }
      }
    }
  ],
  "configuration_version": "1"
}